{
  "id": "addressbook",
  "name": "AddressBook",
  "version": "3.2.0",
  "roles": [
    {
      "code": "director",
      "name": "Director",
      "description": "Director",
      "defaultRole": false
    },
    {
      "code": "user",
      "name": "User",
      "description": "User",
      "defaultRole": true
    }
  ]
}
